{
	"IcoMoonType": "selection",
	"icons": [
		{
			"icon": {
				"paths": [
					"M98.737 805.709l420.569-293.899v293.899l336.291-235.007v320.116h84.107v-378.846l0.325-0.244-0.325-0.244v-377.699h-84.107v318.87l-336.291-234.917v293.899l-420.569-293.899v587.97z"
				],
				"attrs": [],
				"isMulticolor": false,
				"grid": 0,
				"tags": [
					"next"
				]
			},
			"attrs": [],
			"properties": {
				"order": 1,
				"id": 6,
				"prevSize": 32,
				"code": 33,
				"name": "next"
			},
			"setIdx": 0,
			"setId": 0,
			"iconIdx": 0
		},
		{
			"icon": {
				"paths": [
					"M266.887 133.2h132.459v757.601h-132.459v-757.601zM579.959 133.2h132.459v757.601h-132.459v-757.601z"
				],
				"attrs": [],
				"isMulticolor": false,
				"grid": 0,
				"tags": [
					"pause"
				]
			},
			"attrs": [],
			"properties": {
				"order": 2,
				"id": 7,
				"prevSize": 32,
				"code": 34,
				"name": "pause"
			},
			"setIdx": 0,
			"setId": 0,
			"iconIdx": 1
		},
		{
			"icon": {
				"paths": [
					"M772.258 511.639l-505.741 378.349v-756.86l505.741 378.511z"
				],
				"attrs": [],
				"isMulticolor": false,
				"grid": 0,
				"tags": [
					"play"
				]
			},
			"attrs": [],
			"properties": {
				"order": 3,
				"id": 8,
				"prevSize": 32,
				"code": 35,
				"name": "play"
			},
			"setIdx": 0,
			"setId": 0,
			"iconIdx": 2
		},
		{
			"icon": {
				"paths": [
					"M940.038 805.709l-420.569-293.899v293.899l-336.291-235.016v320.116h-84.116v-378.836l-0.325-0.244 0.325-0.244v-377.699h84.116v318.87l336.291-234.917v293.899l420.569-293.899v587.97z"
				],
				"attrs": [],
				"isMulticolor": false,
				"grid": 0,
				"tags": [
					"previous"
				]
			},
			"attrs": [],
			"properties": {
				"order": 4,
				"id": 9,
				"prevSize": 32,
				"code": 36,
				"name": "previous"
			},
			"setIdx": 0,
			"setId": 0,
			"iconIdx": 3
		},
		{
			"icon": {
				"paths": [
					"M832.514 366.319h-113.196l-65.494 75.446-88.405-75.906 92.28-106.296v-9.781h174.806v-115.752l174.797 174.011-174.788 174.011v-115.734zM832.514 658.34v-115.399l174.797 173.505-174.797 173.487v-115.39h-174.815v-9.79l-345.494-396.953h-295.498v-116.212h345.349l1.878-1.644 1.427 1.644h0.966v1.138l352.999 405.614h113.187zM374.456 585.892l88.433 75.924-96.56 111.245v1.138h-0.966l-1.427 1.662-1.878-1.662h-345.349v-116.537h295.498l62.251-71.77z"
				],
				"attrs": [],
				"isMulticolor": false,
				"grid": 0,
				"tags": [
					"shuffle"
				]
			},
			"attrs": [],
			"properties": {
				"order": 5,
				"id": 10,
				"prevSize": 32,
				"code": 37,
				"name": "shuffle"
			},
			"setIdx": 0,
			"setId": 0,
			"iconIdx": 4
		},
		{
			"icon": {
				"paths": [
					"M298 384h172l212-214v684l-212-214h-172v-256z"
				],
				"attrs": [],
				"isMulticolor": false,
				"tags": [
					"volume_mute"
				],
				"grid": 24
			},
			"attrs": [],
			"properties": {
				"order": 1,
				"id": 5,
				"prevSize": 24,
				"code": 38,
				"name": "volume_mute"
			},
			"setIdx": 0,
			"setId": 0,
			"iconIdx": 5
		}
	],
	"height": 1024,
	"metadata": {
		"name": "icomoon"
	},
	"preferences": {
		"showGlyphs": true,
		"showQuickUse": true,
		"showQuickUse2": true,
		"showSVGs": true,
		"fontPref": {
			"prefix": "icon-",
			"metadata": {
				"fontFamily": "icomoon",
				"majorVersion": 1,
				"minorVersion": 0
			},
			"metrics": {
				"emSize": 1024,
				"baseline": 6.25,
				"whitespace": 50
			},
			"resetPoint": 33,
			"embed": true,
			"showSelector": false
		},
		"imagePref": {
			"prefix": "icon-",
			"png": true,
			"useClassSelector": true,
			"color": 4473924,
			"bgColor": 16777215
		},
		"historySize": 100,
		"gridSize": 16
	}
}