<?xml version="1.0" encoding="iso-8859-1"?>
<!-- Generator: Adobe Illustrator 16.0.0, SVG Export Plug-In . SVG Version: 6.00 Build 0)  -->
<!DOCTYPE svg PUBLIC "-//W3C//DTD SVG 1.1//EN" "http://www.w3.org/Graphics/SVG/1.1/DTD/svg11.dtd">
<svg version="1.1" xmlns="http://www.w3.org/2000/svg" xmlns:xlink="http://www.w3.org/1999/xlink" x="0px" y="0px" width="31px"
	 height="30px" viewBox="0 0 31 30" style="enable-background:new 0 0 31 30;" xml:space="preserve">
<g id="fullscreen">
	<path style="fill-rule:evenodd;clip-rule:evenodd;" d="M26,26h-5v-3h4v-5h3v8H26z M25,7h-4V4h5h2v8h-3V7z M3,26v-8h3v5h4v3H5H3z
		 M6,12H3V4h2h5v3H6V12z"/>
</g>
<g id="Layer_1">
</g>
</svg>
