<?xml version="1.0" encoding="iso-8859-1"?>
<!-- Generator: Adobe Illustrator 16.0.0, SVG Export Plug-In . SVG Version: 6.00 Build 0)  -->
<!DOCTYPE svg PUBLIC "-//W3C//DTD SVG 1.1//EN" "http://www.w3.org/Graphics/SVG/1.1/DTD/svg11.dtd">
<svg version="1.1" xmlns="http://www.w3.org/2000/svg" xmlns:xlink="http://www.w3.org/1999/xlink" x="0px" y="0px" width="31px"
	 height="30px" viewBox="0 0 31 30" style="enable-background:new 0 0 31 30;" xml:space="preserve">
<g id="Layer_8">
	<path style="fill-rule:evenodd;clip-rule:evenodd;" d="M27.431,16.032C26.593,16.704,8.751,27.471,7.76,28.219
		c-0.726,0.549-1.679-0.058-1.679-1.305c0-1.267,0-23.493,0-24.367c0-1.133,0.862-1.976,1.713-1.313
		c0.683,0.531,18.472,11.243,19.636,12.159C28.196,13.994,28.183,15.43,27.431,16.032z M9.029,5.422V24l15.04-9.289L9.029,5.422z"/>
</g>
<g id="Layer_1">
</g>
</svg>
