<?xml version="1.0" standalone="no"?>
<!DOCTYPE svg PUBLIC "-//W3C//DTD SVG 1.1//EN" "http://www.w3.org/Graphics/SVG/1.1/DTD/svg11.dtd" >
<svg xmlns="http://www.w3.org/2000/svg">
<metadata>Generated by IcoMoon</metadata>
<defs>
<font id="cincojplayer-01" horiz-adv-x="1024">
<font-face units-per-em="1024" ascent="960" descent="-64" />
<missing-glyph horiz-adv-x="1024" />
<glyph unicode="&#x20;" horiz-adv-x="512" d="" />
<glyph unicode="&#x21;" glyph-name="next" d="M98.737 154.291l420.569 293.899v-293.899l336.291 235.007v-320.116h84.107v378.846l0.325 0.244-0.325 0.244v377.699h-84.107v-318.87l-336.291 234.917v-293.899l-420.569 293.899v-587.97z" />
<glyph unicode="&#x22;" glyph-name="pause" d="M266.887 826.8h132.459v-757.601h-132.459v757.601zM579.959 826.8h132.459v-757.601h-132.459v757.601z" />
<glyph unicode="&#x23;" glyph-name="play" d="M772.258 448.361l-505.741-378.349v756.86l505.741-378.511z" />
<glyph unicode="&#x24;" glyph-name="previous" d="M940.038 154.291l-420.569 293.899v-293.899l-336.291 235.016v-320.116h-84.116v378.836l-0.325 0.244 0.325 0.244v377.699h84.116v-318.87l336.291 234.917v-293.899l420.569 293.899v-587.97z" />
<glyph unicode="&#x25;" glyph-name="shuffle" d="M832.514 593.681h-113.196l-65.494-75.446-88.405 75.906 92.28 106.296v9.781h174.806v115.752l174.797-174.011-174.788-174.011v115.734zM832.514 301.66v115.399l174.797-173.505-174.797-173.487v115.39h-174.815v9.79l-345.494 396.953h-295.498v116.212h345.349l1.878 1.644 1.427-1.644h0.966v-1.138l352.999-405.614h113.187zM374.456 374.108l88.433-75.924-96.56-111.245v-1.138h-0.966l-1.427-1.662-1.878 1.662h-345.349v116.537h295.498l62.251 71.77z" />
</font></defs></svg>