<?xml version="1.0" encoding="iso-8859-1"?>
<!-- Generator: Adobe Illustrator 16.0.0, SVG Export Plug-In . SVG Version: 6.00 Build 0)  -->
<!DOCTYPE svg PUBLIC "-//W3C//DTD SVG 1.1//EN" "http://www.w3.org/Graphics/SVG/1.1/DTD/svg11.dtd">
<svg version="1.1" xmlns="http://www.w3.org/2000/svg" xmlns:xlink="http://www.w3.org/1999/xlink" x="0px" y="0px" width="38px"
	 height="38px" viewBox="0 0 38 38" style="enable-background:new 0 0 38 38;" xml:space="preserve">
<g id="prev">
	<g id="prev_1_">
		<g>
			<path style="fill-rule:evenodd;clip-rule:evenodd;" d="M10.282,19.017L36,36.993V1.04L10.282,19.017z M6.007,1.052H3.862
				C2.679,1.052,2,2.833,2,4v30c0,1.169,0.679,2.98,1.862,2.98h2.145C7.19,36.98,8,35.169,8,34V4C8,2.833,7.19,1.052,6.007,1.052z"
				/>
		</g>
	</g>
</g>
<g id="Layer_1">
</g>
</svg>
