<?xml version="1.0" encoding="iso-8859-1"?>
<!-- Generator: Adobe Illustrator 16.0.0, SVG Export Plug-In . SVG Version: 6.00 Build 0)  -->
<!DOCTYPE svg PUBLIC "-//W3C//DTD SVG 1.1//EN" "http://www.w3.org/Graphics/SVG/1.1/DTD/svg11.dtd">
<svg version="1.1" xmlns="http://www.w3.org/2000/svg" xmlns:xlink="http://www.w3.org/1999/xlink" x="0px" y="0px"
	 width="113.386px" height="113.386px" viewBox="0 0 113.386 113.386" style="enable-background:new 0 0 113.386 113.386;"
	 xml:space="preserve">
<g id="previous">
	<path style="fill-rule:evenodd;clip-rule:evenodd;fill:#231F20;" d="M104.089,89.215L57.52,56.672v32.543L20.283,63.192v35.446
		h-9.314V56.69l-0.036-0.027l0.036-0.027V14.814h9.314v35.308L57.52,24.11v32.543l46.569-32.543V89.215z"/>
</g>
<g id="Layer_1">
</g>
</svg>
