<?xml version="1.0" standalone="no"?>
<!DOCTYPE svg PUBLIC "-//W3C//DTD SVG 1.1//EN" "http://www.w3.org/Graphics/SVG/1.1/DTD/svg11.dtd" >
<svg xmlns="http://www.w3.org/2000/svg">
<metadata>Generated by IcoMoon</metadata>
<defs>
<font id="jplayer-branded" horiz-adv-x="1024">
<font-face units-per-em="1024" ascent="960" descent="-64" />
<missing-glyph horiz-adv-x="1024" />
<glyph unicode="&#x20;" horiz-adv-x="512" d="" />
<glyph unicode="&#x3c;" glyph-name="prev" horiz-adv-x="1058" d="M546.133 823.467v-294.468l375.467 294.468v-750.933l-375.467 295.561v-295.561l-477.867 376.183 477.867 374.75z" />
<glyph unicode="&#x3e;" glyph-name="next" horiz-adv-x="1058" d="M989.867 448.717l-477.867-376.183v295.561l-375.467-295.561v750.933l375.467-294.468v294.468l477.867-374.75z" />
<glyph unicode="&#x40;" glyph-name="play" horiz-adv-x="1058" d="M273.067 823.467l580.267-376.081-580.267-374.852v750.933z" />
<glyph unicode="&#x6d;" glyph-name="mute" horiz-adv-x="1058" d="M462.333 277.333h-170.667v307.2h170.667l204.8 238.933h68.267v-750.933h-68.268l-204.799 204.8z" />
<glyph unicode="&#x75;" glyph-name="mute2" horiz-adv-x="1058" d="M399.033 277.333h-170.667v307.2h170.667l204.8 238.933h68.268v-750.933h-68.268l-204.8 204.8zM187.738 102.235l667.506 667.506 29.698-29.698-667.506-667.506-29.698 29.698z" />
<glyph unicode="&#x76;" glyph-name="volume" horiz-adv-x="1058" d="M819.2 174.933v512h68.267v-512h-68.267zM682.667 584.533h68.267v-307.2h-68.267v307.2zM341.333 277.333h-170.667v307.2h170.667l204.8 238.933h68.267v-750.933h-68.267l-204.8 204.8z" />
</font></defs></svg>