<?xml version="1.0" standalone="no"?>
<!DOCTYPE svg PUBLIC "-//W3C//DTD SVG 1.1//EN" "http://www.w3.org/Graphics/SVG/1.1/DTD/svg11.dtd" >
<svg xmlns="http://www.w3.org/2000/svg">
<metadata>Generated by IcoMoon</metadata>
<defs>
<font id="jplayerflatter" horiz-adv-x="1024">
<font-face units-per-em="1024" ascent="960" descent="-64" />
<missing-glyph horiz-adv-x="1024" />
<glyph unicode="&#x20;" horiz-adv-x="512" d="" />
<glyph unicode="&#x23;" glyph-name="pause" d="M379.222 790.188h-60.21c-19.95 0-36.124-14.612-36.124-32.629v-619.1c0-18.017 16.175-32.629 36.124-32.629h60.21c19.95 0 36.124 14.612 36.124 32.629v619.091c0 18.026-16.175 32.638-36.124 32.638zM724.833 790.188h-60.21c-19.95 0-36.124-14.612-36.124-32.629v-619.1c0-18.017 16.175-32.629 36.124-32.629h60.21c19.95 0 36.124 14.612 36.124 32.629v619.091c0 18.026-16.175 32.638-36.124 32.638z" />
<glyph unicode="&#x3c;" glyph-name="chevron-thin-left" d="M711.219 80.998c13.722-13.926 13.722-36.301 0-50.125s-35.891-13.875-49.613 0l-400.896 404.89c-13.722 13.824-13.722 36.198 0 50.125l400.896 404.89c13.722 13.824 35.891 13.824 49.613 0 13.722-13.875 13.722-36.301 0-50.125l-365.619-379.853 365.619-379.802z" />
<glyph unicode="&#x3e;" glyph-name="chevron-thin-right" d="M678.4 460.8l-365.619 379.904c-13.722 13.824-13.722 36.198 0 50.125 13.722 13.824 35.891 13.824 49.613 0l400.896-404.89c13.722-13.875 13.722-36.301 0-50.125l-400.896-404.89c-13.722-13.875-35.891-13.824-49.613 0-13.722 13.773-13.722 36.198 0 50.125l365.619 379.75z" />
<glyph unicode="&#x40;" glyph-name="play" d="M755.565 389.921c-91.494-71.824-248.5-195.054-342.251-268.513-30.29-23.562-74.768-21.521-76.954 13.845 0 148.029 0 478.63 0 625.024 2.186 25.91 35.637 46.194 77.315 11.379 93.689-73.468 250.216-196.273 341.71-268.106 26.497-18.785 19.796-92.795 0.181-113.629z" />
<glyph unicode="&#x72;" glyph-name="repeat" d="M540.24 78.565c-187.982 0-340.382 152.391-340.382 340.382 0 93.3 37.642 177.732 98.448 239.198l-113.214 113.232 325.526 22.542-22.542-325.526-118.307 118.307c-42.5-43.187-68.772-102.377-68.772-167.744 0-132.143 107.118-239.261 239.252-239.261 132.143 0 239.261 107.118 239.261 239.261 0 78.462-37.786 148.11-96.145 191.739l58.512 82.445c84.134-61.971 138.745-161.693 138.745-274.184 0.009-188-152.382-340.391-340.382-340.391z" />
<glyph unicode="&#x73;" glyph-name="shuffle" d="M832.514 593.681h-113.196l-65.494-75.446-88.405 75.906 92.28 106.296v9.781h174.806v115.752l174.797-174.011-174.788-174.011v115.734zM832.514 301.66v115.399l174.797-173.505-174.797-173.487v115.39h-174.815v9.79l-345.494 396.953h-295.498v116.212h345.349l1.878 1.644 1.427-1.644h0.966v-1.138l352.999-405.614h113.187zM374.456 374.108l88.433-75.924-96.56-111.245v-1.138h-0.966l-1.427-1.662-1.878 1.662h-345.349v116.537h295.498l62.251 71.77z" />
<glyph unicode="&#x76;" glyph-name="volume" d="M164.131 616.638v-336.499h195.686l207.778-180.288v697.183l-207.896-180.396zM583.21 518.686c38.725-38.734 38.725-101.762 0-140.497l31.925-31.925c56.336 56.345 56.336 148.020 0 204.347l-31.925-31.925zM695.458 630.455l-31.925-31.925c82.743-82.752 82.743-217.415 0-300.185l31.925-31.925c100.345 100.372 100.345 263.681 0 364.035zM797.030 731.712l-31.925-31.925c138.573-138.582 138.573-364.080 0-502.689l31.925-31.925c156.175 156.202 156.175 410.355 0 566.539z" />
</font></defs></svg>