<?xml version="1.0" standalone="no"?>
<!DOCTYPE svg PUBLIC "-//W3C//DTD SVG 1.1//EN" "http://www.w3.org/Graphics/SVG/1.1/DTD/svg11.dtd" >
<svg xmlns="http://www.w3.org/2000/svg">
<metadata>
<json>
<![CDATA[
{
	"fontFamily": "jplayer-default",
	"majorVersion": 1,
	"minorVersion": 0,
	"copyright": "Cincopa",
	"fontURL": "https://www.cincopa.com",
	"version": "Version 1.0",
	"fontId": "jplayer-default",
	"psName": "jplayer-default",
	"subFamily": "Regular",
	"fullName": "jplayer-default",
	"description": "Font generated by IcoMoon."
}
]]>
</json>
</metadata>
<defs>
<font id="jplayer-default" horiz-adv-x="1024">
<font-face units-per-em="1024" ascent="960" descent="-64" />
<missing-glyph horiz-adv-x="1024" />
<glyph unicode="&#x20;" horiz-adv-x="512" d="" />
<glyph unicode="&#x21;" glyph-name="stop" data-tags="stop, player, square" d="M168 792h688v-688h-688z" />
<glyph unicode="&#x23;" glyph-name="pause" data-tags="pause" d="M266.887 826.8h132.459v-757.601h-132.459v757.601zM579.959 826.8h132.459v-757.601h-132.459v757.601z" />
<glyph unicode="&#x2a;" glyph-name="spinner" data-tags="spinner" d="M512-38.4c-268.634 0-473.6 217.766-473.6 486.4 0 261.568 212.032 473.6 473.6 473.6v25.6c-275.699 0-499.2-223.501-499.2-499.2s223.501-499.2 499.2-499.2c271.411 0 492.058 216.64 498.88 486.4h-0.013c-7.219-262.694-234.522-473.6-498.867-473.6z" />
<glyph unicode="&#x2b;" glyph-name="dropdown" data-tags="arrow_drop_down" d="M298 512.667h428l-214-214z" />
<glyph unicode="&#x3c;" glyph-name="previous" data-tags="previous" d="M940.038 154.291l-420.569 293.899v-293.899l-336.291 235.016v-320.116h-84.116v378.836l-0.325 0.244 0.325 0.244v377.699h84.116v-318.87l336.291 234.917v-293.899l420.569 293.899v-587.97z" />
<glyph unicode="&#x3e;" glyph-name="next" data-tags="next" d="M98.737 154.291l420.569 293.899v-293.899l336.291 235.007v-320.116h84.107v378.846l0.325 0.244-0.325 0.244v377.699h-84.107v-318.87l-336.291 234.917v-293.899l-420.569 293.899v-587.97z" />
<glyph unicode="&#x40;" glyph-name="play" data-tags="play" d="M772.258 448.361l-505.741-378.349v756.86l505.741-378.511z" />
<glyph unicode="&#x43;" glyph-name="chromecast" data-tags="chromecast" d="M498.731 109.504c-5.269 25.472 0.768 58.517-8.064 82.496h405.333v490.667h-704v-192c-23.957 8.96-59.84 16-85.333 21.333v256h874.667v-658.496h-482.603zM422.635 64h-82.155c-22.848 153.877-144.299 265.877-297.813 288.384v82.005c198.571-23.936 356.032-171.84 379.968-370.389zM279.083 64h-78.891c-20.651 75.712-81.109 125.44-157.525 144.427v78.549c119.125-21.099 213.376-104.512 236.416-222.976zM137.045 64h-94.379v80.256c43.072-14.699 77.632-38.187 94.379-80.256z" />
<glyph unicode="&#x4d;" glyph-name="mute2" data-tags="mute2" horiz-adv-x="1058" d="M399.033 277.333h-170.667v307.2h170.667l204.8 238.933h68.268v-750.933h-68.268l-204.8 204.8zM187.738 102.235l667.506 667.506 29.698-29.698-667.506-667.506-29.698 29.698z" />
<glyph unicode="&#x53;" glyph-name="share" data-tags="share" horiz-adv-x="1058" d="M704 322.833c-26.385 0-50.586-9.728-70.076-25.941l-200.397 130.628c0.99 6.656 1.673 13.483 1.673 20.48s-0.683 13.79-1.673 20.514l200.397 130.628c19.456-16.247 43.657-25.975 70.076-25.975 63.59 0 115.2 56.047 115.2 125.133 0 69.12-51.61 125.167-115.2 125.167s-115.2-56.047-115.2-125.167c0-6.963 0.683-13.79 1.673-20.48l-200.397-130.628c-19.422 16.213-43.657 25.975-70.076 25.975-63.625 0-115.2-56.047-115.2-125.167 0-69.086 51.575-125.167 115.2-125.167 26.385 0 50.62 9.728 70.076 26.010l200.397-130.628c-0.99-6.69-1.673-13.517-1.673-20.548 0-69.086 51.61-125.133 115.2-125.133s115.2 56.047 115.2 125.133c0 69.12-51.61 125.167-115.2 125.167z" />
<glyph unicode="&#x6d;" glyph-name="mute" data-tags="mute" horiz-adv-x="1058" d="M462.333 277.333h-170.667v307.2h170.667l204.8 238.933h68.267v-750.933h-68.268l-204.799 204.8z" />
<glyph unicode="&#x70;" glyph-name="playlist" data-tags="playlist" d="M143.712 757.143h154.793v-72.249h-154.793v72.249zM380.029 757.143h502.481v-72.249h-502.481v72.249zM143.712 571.997h154.793v-72.249h-154.793v72.249zM380.029 571.997h502.481v-72.249h-502.481v72.249zM143.712 386.859h154.793v-72.249h-154.793v72.249zM380.029 386.859h502.481v-72.249h-502.481v72.249zM143.712 201.722h154.793v-72.249h-154.793v72.249zM380.029 201.722h502.481v-72.249h-502.481v72.249z" />
<glyph unicode="&#x72;" glyph-name="repeat" data-tags="repeat" d="M540.24 78.565c-187.982 0-340.382 152.391-340.382 340.382 0 93.3 37.642 177.732 98.448 239.198l-113.214 113.232 325.526 22.542-22.542-325.526-118.307 118.307c-42.5-43.187-68.772-102.377-68.772-167.744 0-132.143 107.118-239.261 239.252-239.261 132.143 0 239.261 107.118 239.261 239.261 0 78.462-37.786 148.11-96.145 191.739l58.512 82.445c84.134-61.971 138.745-161.693 138.745-274.184 0.009-188-152.382-340.391-340.382-340.391z" />
<glyph unicode="&#x73;" glyph-name="shuffle" data-tags="shuffle" d="M832.514 593.681h-113.196l-65.494-75.446-88.405 75.906 92.28 106.296v9.781h174.806v115.752l174.797-174.011-174.788-174.011v115.734zM832.514 301.66v115.399l174.797-173.505-174.797-173.487v115.39h-174.815v9.79l-345.494 396.953h-295.498v116.212h345.349l1.878 1.644 1.427-1.644h0.966v-1.138l352.999-405.614h113.187zM374.456 374.108l88.433-75.924-96.56-111.245v-1.138h-0.966l-1.427-1.662-1.878 1.662h-345.349v116.537h295.498l62.251 71.77z" />
<glyph unicode="&#x76;" glyph-name="volume" data-tags="volume" horiz-adv-x="1058" d="M819.2 174.933v512h68.267v-512h-68.267zM682.667 584.533h68.267v-307.2h-68.267v307.2zM341.333 277.333h-170.667v307.2h170.667l204.8 238.933h68.267v-750.933h-68.267l-204.8 204.8z" />
</font></defs></svg>