<?xml version="1.0" encoding="iso-8859-1"?>
<!-- Generator: Adobe Illustrator 16.0.0, SVG Export Plug-In . SVG Version: 6.00 Build 0)  -->
<!DOCTYPE svg PUBLIC "-//W3C//DTD SVG 1.1//EN" "http://www.w3.org/Graphics/SVG/1.1/DTD/svg11.dtd">
<svg version="1.1" xmlns="http://www.w3.org/2000/svg" xmlns:xlink="http://www.w3.org/1999/xlink" x="0px" y="0px"
	 width="113.386px" height="113.386px" viewBox="0 0 113.386 113.386" style="enable-background:new 0 0 113.386 113.386;"
	 xml:space="preserve">
<g id="previous">
	<g>
		<path style="fill:#231F20;" d="M97.475,26.732c-1.018-0.509-2.231-0.401-3.141,0.28L62.648,50.716V29.415
			c0-1.136-0.642-2.174-1.656-2.683c-1.018-0.509-2.232-0.401-3.141,0.28L21.396,54.285c-0.757,0.566-1.203,1.457-1.203,2.402
			c0,0.946,0.445,1.835,1.203,2.403l36.456,27.282c0.529,0.396,1.162,0.599,1.797,0.599c0.458,0,0.918-0.104,1.343-0.317
			c1.016-0.509,1.657-1.547,1.657-2.683v-21.31l31.685,23.712c0.529,0.396,1.162,0.598,1.798,0.598c0.458,0,0.918-0.104,1.343-0.317
			c1.016-0.509,1.657-1.547,1.657-2.683V29.415C99.131,28.279,98.489,27.241,97.475,26.732z M56.648,77.979L28.2,56.688
			l28.449-21.282V77.979z M93.131,77.979L64.682,56.688l28.449-21.282V77.979z"/>
		<path style="fill:#231F20;" d="M16.912,26.415c-1.657,0-3,1.343-3,3v54.556c0,1.657,1.343,3,3,3s3-1.343,3-3V29.415
			C19.912,27.758,18.568,26.415,16.912,26.415z"/>
	</g>
</g>
<g id="Layer_1">
</g>
</svg>
