<?xml version="1.0" encoding="iso-8859-1"?>
<!-- Generator: Adobe Illustrator 16.0.0, SVG Export Plug-In . SVG Version: 6.00 Build 0)  -->
<!DOCTYPE svg PUBLIC "-//W3C//DTD SVG 1.1//EN" "http://www.w3.org/Graphics/SVG/1.1/DTD/svg11.dtd">
<svg version="1.1" xmlns="http://www.w3.org/2000/svg" xmlns:xlink="http://www.w3.org/1999/xlink" x="0px" y="0px"
	 width="113.386px" height="113.386px" viewBox="0 0 113.386 113.386" style="enable-background:new 0 0 113.386 113.386;"
	 xml:space="preserve">
<g id="mute">
	<path style="fill-rule:evenodd;clip-rule:evenodd;fill:#231F20;" d="M87.279,89.253c-0.717,0.682-1.648,1.023-2.581,1.023
		c-0.928,0-1.865-0.342-2.576-1.023c-1.403-1.367-1.416-3.572,0-4.938c7.854-7.559,11.75-17.455,11.758-27.373
		c-0.008-9.873-3.92-19.695-11.758-27.238c-1.403-1.365-1.403-3.571,0-4.939c1.428-1.37,3.717-1.37,5.157,0
		c9.211,8.882,13.869,20.541,13.869,32.177C101.148,68.624,96.519,80.327,87.279,89.253z M77.431,78.114
		c-0.707,0.682-1.631,1.016-2.56,1.016c-0.936,0-1.864-0.334-2.568-1.016c-1.419-1.357-1.419-3.588,0-4.945
		c4.661-4.486,6.978-10.365,6.984-16.258c-0.004-5.887-2.313-11.729-6.984-16.226c-1.419-1.348-1.419-3.562,0-4.928
		c1.415-1.365,3.714-1.365,5.128,0c6.069,5.835,9.123,13.502,9.116,21.154C86.554,64.569,83.513,72.263,77.431,78.114z
		 M57.122,91.526L30.164,72.288h-14.26V41.717h14.26l27.555-19.77c0,0,4.361-3.164,4.361,0.075c0,3.75,0,65.241,0,69.37
		C62.08,95.503,57.122,91.526,57.122,91.526z"/>
</g>
<g id="Layer_1">
</g>
</svg>
