<?xml version="1.0" encoding="iso-8859-1"?>
<!-- Generator: Adobe Illustrator 16.0.0, SVG Export Plug-In . SVG Version: 6.00 Build 0)  -->
<!DOCTYPE svg PUBLIC "-//W3C//DTD SVG 1.1//EN" "http://www.w3.org/Graphics/SVG/1.1/DTD/svg11.dtd">
<svg version="1.1" xmlns="http://www.w3.org/2000/svg" xmlns:xlink="http://www.w3.org/1999/xlink" x="0px" y="0px"
	 width="113.386px" height="113.386px" viewBox="0 0 113.386 113.386" style="enable-background:new 0 0 113.386 113.386;"
	 xml:space="preserve">
<g id="playlist">
	<path style="fill:#231F20;" d="M15.28,20.681c-5.471,0-9.899,4.423-9.899,9.881c0,5.457,4.429,9.879,9.899,9.879
		c5.469,0,9.896-4.423,9.896-9.879C25.176,25.104,20.749,20.681,15.28,20.681z M15.28,47.027c-5.471,0-9.899,4.425-9.899,9.881
		c0,5.455,4.429,9.882,9.899,9.882c5.469,0,9.896-4.428,9.896-9.882C25.176,51.452,20.749,47.027,15.28,47.027z M15.28,73.377
		c-5.471,0-9.899,4.42-9.899,9.881c0,5.457,4.429,9.879,9.899,9.879c5.469,0,9.896-4.422,9.896-9.879
		C25.176,77.797,20.749,73.377,15.28,73.377z M38.378,37.149h62.692c3.646,0,6.602-2.95,6.602-6.587c0-3.64-2.956-6.588-6.602-6.588
		H38.378c-3.649,0-6.6,2.949-6.6,6.588C31.779,34.2,34.729,37.149,38.378,37.149z M101.07,50.323H38.378
		c-3.649,0-6.6,2.947-6.6,6.586c0,3.64,2.95,6.587,6.6,6.587h62.692c3.646,0,6.602-2.947,6.602-6.587
		C107.672,53.27,104.716,50.323,101.07,50.323z M101.07,76.668H38.378c-3.649,0-6.6,2.951-6.6,6.59c0,3.637,2.95,6.584,6.6,6.584
		h62.692c3.646,0,6.602-2.947,6.602-6.584C107.672,79.619,104.716,76.668,101.07,76.668z"/>
</g>
<g id="Layer_1">
</g>
</svg>
