<?xml version="1.0" standalone="no"?>
<!DOCTYPE svg PUBLIC "-//W3C//DTD SVG 1.1//EN" "http://www.w3.org/Graphics/SVG/1.1/DTD/svg11.dtd">
<svg xmlns="http://www.w3.org/2000/svg">
<metadata>Generated by Fontastic.me</metadata>
<defs>
<font id="cincojplayer02" horiz-adv-x="512">
<font-face font-family="cincojplayer02" units-per-em="512" ascent="480" descent="-32"/>
<missing-glyph horiz-adv-x="512" />

<glyph unicode="&#97;" d="M50 108l211 147 0-147 168 118 0-161 42 0 0 190 1 0-1 0 0 190-42 0 0-160-168 118 0-148-211 148z"/>
<glyph unicode="&#98;" d="M134 445l66 0 0-380-66 0z m157 0l66 0 0-380-66 0z"/>
<glyph unicode="&#99;" d="M387 255l-253-190 0 380z"/>
<glyph unicode="&#100;" d="M418 328l-57 0-33-38-44 38 46 54 0 5 88 0 0 58 87-88-87-87z m0-146l0 58 87-87-87-87 0 57-88 0 0 5-173 199-149 0 0 59 174 0 1 1 0-1 1 0 0-1 177-203z m-230 36l44-38-48-56 0 0-1 0 0-1-1 1-174 0 0 58 149 0z"/>
<glyph unicode="&#101;" d="M472 108l-211 147 0-147-169 118 0-161-42 0 0 190 0 0 0 0 0 190 42 0 0-160 169 118 0-148 211 148z"/>
</font></defs></svg>
