<?xml version="1.0" encoding="utf-8"?>
<!-- Generator: Adobe Illustrator 16.0.0, SVG Export Plug-In . SVG Version: 6.00 Build 0)  -->
<!DOCTYPE svg PUBLIC "-//W3C//DTD SVG 1.1//EN" "http://www.w3.org/Graphics/SVG/1.1/DTD/svg11.dtd">
<svg version="1.1" id="Layer_1" xmlns="http://www.w3.org/2000/svg" xmlns:xlink="http://www.w3.org/1999/xlink" x="0px" y="0px"
	 width="1058px" height="1024px" viewBox="0 0 1058 1024" enable-background="new 0 0 1058 1024" xml:space="preserve">
<g id="icomoon-ignore">
</g>
<path d="M399.033,682.667H228.366v-307.2h170.667l204.8-238.933h68.268v750.933h-68.268L399.033,682.667L399.033,682.667z"/>
<rect x="64.345" y="517.86" transform="matrix(0.7071 -0.7071 0.7071 0.7071 -223.9393 537.0845)" width="944.005" height="42"/>
</svg>
