<?xml version="1.0" standalone="no"?>
<!DOCTYPE svg PUBLIC "-//W3C//DTD SVG 1.1//EN" "http://www.w3.org/Graphics/SVG/1.1/DTD/svg11.dtd" >
<svg xmlns="http://www.w3.org/2000/svg">
<metadata>Generated by IcoMoon</metadata>
<defs>
<font id="jplayer05" horiz-adv-x="1024">
<font-face units-per-em="1024" ascent="960" descent="-64" />
<missing-glyph horiz-adv-x="1024" />
<glyph unicode="&#x20;" horiz-adv-x="512" d="" />
<glyph unicode="&#x2d;" glyph-name="volume" horiz-adv-x="602" d="M0 598.588h301.176v-301.176h-301.176v301.176z" />
<glyph unicode="&#x61;" glyph-name="pause" d="M188.632-37.053h215.579v970.105h-215.579v-970.105zM646.737 933.053v-970.105h215.579v970.105h-215.579z" />
<glyph unicode="&#x62;" glyph-name="play" d="M242.526-37.053v970.105l673.684-485.053-673.684-485.053z" />
<glyph unicode="&#x63;" glyph-name="prev" d="M277.073 447.542l693.032-484.406v968.839l-693.032-484.433zM161.873 931.651h-57.802c-31.879 0-50.176-47.993-50.176-79.441v-808.421c0-31.501 18.297-80.303 50.176-80.303h57.802c31.879 0 53.706 48.802 53.706 80.303v808.421c0 31.448-21.827 79.441-53.706 79.441z" />
<glyph unicode="&#x64;" glyph-name="shuffle" d="M832.514 593.681h-113.196l-65.494-75.446-88.405 75.906 92.28 106.296v9.781h174.806v115.752l174.797-174.011-174.788-174.011v115.734zM832.514 301.66v115.399l174.797-173.505-174.797-173.487v115.39h-174.815v9.79l-345.494 396.953h-295.498v116.212h345.349l1.878 1.644 1.427-1.644h0.966v-1.138l352.999-405.614h113.187zM374.456 374.108l88.433-75.924-96.56-111.245v-1.138h-0.966l-1.427-1.662-1.878 1.662h-345.349v116.537h295.498l62.251 71.77z" />
<glyph unicode="&#x65;" glyph-name="next" d="M53.895 931.975v-968.839l693.032 484.433-693.032 484.406zM808.421 852.211v-808.421c0-31.501 21.827-80.303 53.679-80.303h57.829c31.879 0 50.176 48.802 50.176 80.303v808.421c0 31.448-18.297 79.441-50.176 79.441h-57.829c-31.852 0-53.679-47.993-53.679-79.441z" />
</font></defs></svg>