<?xml version="1.0" standalone="no"?>
<!DOCTYPE svg PUBLIC "-//W3C//DTD SVG 1.1//EN" "http://www.w3.org/Graphics/SVG/1.1/DTD/svg11.dtd">
<svg xmlns="http://www.w3.org/2000/svg">
<metadata>Generated by Fontastic.me</metadata>
<defs>
<font id="cincojplayer01" horiz-adv-x="512">
<font-face font-family="cincojplayer01" units-per-em="512" ascent="480" descent="-32"/>
<missing-glyph horiz-adv-x="512" />

<glyph unicode="&#97;" d="M290 65l0 380 90 0 0-380z m-156 380l89 0 0-380-89 0z"/>
<glyph unicode="&#98;" d="M425 255l-336-190 0 380z"/>
<glyph unicode="&#99;" d="M391 110l-179 116 0-116-89 0 0 290 89 0 0-116 179 117z"/>
<glyph unicode="&#100;" d="M380 311l-44 0-25-29-34 29 36 41 0 4 67 0 0 44 67-67-67-66z m0-112l0 44 67-66-67-67 0 44-67 0 0 4-133 152-113 0 0 45 132 0 1 1 1-1 0 0 0 0 135-156z m-176 28l34-29-37-43 0 0 0 0-1-1-1 1-132 0 0 44 113 0z"/>
<glyph unicode="&#101;" d="M302 110l0 116-179-116 0 291 179-117 0 117 89 0 0-291z"/>
</font></defs></svg>
